{
	"info": {
		"_postman_id": "7873154e-0f75-4162-992b-9ed73fef735e",
		"name": "M2B",
		"schema": "https://schema.getpostman.com/json/collection/v2.1.0/collection.json"
	},
	"item": [
		{
			"name": "Auth",
			"item": [
				{
					"name": "Login",
					"event": [
						{
							"listen": "test",
							"script": {
								"type": "text/javascript",
								"exec": [
									"var response = JSON.parse(responseBody);",
									"var jsonData = pm.response.json();",
									"pm.environment.set(\"token\", \"Bearer \" + jsonData.access_token);",
									""
								]
							}
						}
					],
					"request": {
						"method": "POST",
						"header": [],
						"body": {
							"mode": "formdata",
							"formdata": [
								{
									"key": "phone",
									"value": "123123",
									"type": "text",
									"disabled": true
								},
								{
									"key": "password",
									"value": "123123",
									"type": "text"
								},
								{
									"key": "email",
									"value": "admin@example.com",
									"type": "text"
								},
								{
									"key": "platform",
									"value": "web_admin",
									"type": "text"
								}
							]
						},
						"url": {
							"raw": "{{url}}/api/v1/auth/login",
							"host": [
								"{{url}}"
							],
							"path": [
								"api",
								"v1",
								"auth",
								"login"
							]
						}
					},
					"response": []
				},
				{
					"name": "Login with Facebook",
					"request": {
						"method": "POST",
						"header": [],
						"body": {
							"mode": "formdata",
							"formdata": [
								{
									"key": "token",
									"value": "EAAPrVKzZAZA1kBACEHaCZABsEvsV1zRymE6gcIHZAZBCkVmE0uV0v037T7wg5gCJMtlwfGQO3ZCZB3mFjjO6EGHQZC9bji61TszCITZAY7BZBBAkZAeWR2JvsmggOLYpE0lrTKXJCxLbpliwtiJDCiVZBAOEVZBGZCiegYRRhktPZAM1F2ZBZBCn41z1tRh5S9vgaOZAZCZA0tPgnmeCzQZBk4Tq7BddmipiL",
									"type": "text"
								}
							]
						},
						"url": {
							"raw": "{{url}}/api/v1/auth/facebook",
							"host": [
								"{{url}}"
							],
							"path": [
								"api",
								"v1",
								"auth",
								"facebook"
							]
						}
					},
					"response": []
				},
				{
					"name": "Get me",
					"request": {
						"auth": {
							"type": "noauth"
						},
						"method": "GET",
						"header": [
							{
								"key": "Authorization",
								"value": "{{token}}"
							}
						],
						"body": {
							"mode": "raw",
							"raw": ""
						},
						"url": {
							"raw": "{{url}}/api/v1/me",
							"host": [
								"{{url}}"
							],
							"path": [
								"api",
								"v1",
								"me"
							]
						}
					},
					"response": []
				}
			]
		},
		{
			"name": "Users",
			"item": [
				{
					"name": "Forgot password",
					"request": {
						"auth": {
							"type": "noauth"
						},
						"method": "POST",
						"header": [],
						"body": {
							"mode": "formdata",
							"formdata": [
								{
									"key": "email",
									"value": "salon@example.com",
									"type": "text"
								}
							]
						},
						"url": {
							"raw": "{{url}}/api/v1/password/forgot/request",
							"host": [
								"{{url}}"
							],
							"path": [
								"api",
								"v1",
								"password",
								"forgot",
								"request"
							]
						}
					},
					"response": []
				},
				{
					"name": "Update a user",
					"request": {
						"method": "PATCH",
						"header": [
							{
								"key": "Authorization",
								"value": "{{token}}"
							},
							{
								"key": "Content-Type",
								"value": "application/json"
							}
						],
						"body": {
							"mode": "raw",
							"raw": "{\r\n  \"name\":\"Salon owner\",\r\n  \"email\":\"salon@example.com\",\r\n  \"password\":\"123123\",\r\n  \"phone\": \"456456\",\r\n  \"role\":\"salon_owner\"\r\n}"
						},
						"url": {
							"raw": "{{url}}/api/v1/users/2",
							"host": [
								"{{url}}"
							],
							"path": [
								"api",
								"v1",
								"users",
								"2"
							]
						}
					},
					"response": []
				},
				{
					"name": "Create a user",
					"request": {
						"method": "POST",
						"header": [
							{
								"key": "Authorization",
								"value": "{{token}}"
							}
						],
						"body": {
							"mode": "formdata",
							"formdata": [
								{
									"key": "name",
									"value": "Owner one",
									"type": "text"
								},
								{
									"key": "email",
									"value": "salon+1@example.com",
									"type": "text"
								},
								{
									"key": "password",
									"value": "123123",
									"type": "text"
								},
								{
									"key": "role",
									"value": "salon_owner",
									"type": "text"
								},
								{
									"key": "phone",
									"value": "161616",
									"type": "text"
								}
							]
						},
						"url": {
							"raw": "{{url}}/api/v1/users",
							"host": [
								"{{url}}"
							],
							"path": [
								"api",
								"v1",
								"users"
							]
						}
					},
					"response": []
				},
				{
					"name": "Get a user",
					"request": {
						"method": "GET",
						"header": [
							{
								"key": "Authorization",
								"value": "{{token}}"
							}
						],
						"body": {
							"mode": "raw",
							"raw": ""
						},
						"url": {
							"raw": "{{url}}/api/v1/users/9",
							"host": [
								"{{url}}"
							],
							"path": [
								"api",
								"v1",
								"users",
								"9"
							]
						}
					},
					"response": []
				},
				{
					"name": "Get list users",
					"request": {
						"method": "GET",
						"header": [
							{
								"key": "Authorization",
								"value": "{{token}}"
							}
						],
						"body": {
							"mode": "raw",
							"raw": ""
						},
						"url": {
							"raw": "{{url}}/api/v1/users",
							"host": [
								"{{url}}"
							],
							"path": [
								"api",
								"v1",
								"users"
							]
						}
					},
					"response": []
				},
				{
					"name": "Change password",
					"request": {
						"auth": {
							"type": "noauth"
						},
						"method": "POST",
						"header": [
							{
								"key": "Authorization",
								"value": "{{token}}"
							}
						],
						"body": {
							"mode": "formdata",
							"formdata": [
								{
									"key": "current_password",
									"value": "123123",
									"type": "text"
								},
								{
									"key": "password",
									"value": "123123",
									"type": "text"
								},
								{
									"key": "confirm_password",
									"value": "123123",
									"type": "text"
								}
							]
						},
						"url": {
							"raw": "{{url}}/api/v1/password/change",
							"host": [
								"{{url}}"
							],
							"path": [
								"api",
								"v1",
								"password",
								"change"
							]
						}
					},
					"response": []
				}
			]
		},
		{
			"name": "Salons",
			"item": [
				{
					"name": "Working Times",
					"item": [
						{
							"name": "Delete time",
							"request": {
								"method": "DELETE",
								"header": [
									{
										"key": "Authorization",
										"value": "{{token}}"
									}
								],
								"body": {
									"mode": "raw",
									"raw": ""
								},
								"url": {
									"raw": "{{url}}/api/v1/times/22",
									"host": [
										"{{url}}"
									],
									"path": [
										"api",
										"v1",
										"times",
										"22"
									]
								}
							},
							"response": []
						}
					],
					"_postman_isSubFolder": true
				},
				{
					"name": "Update a salon",
					"request": {
						"method": "PATCH",
						"header": [
							{
								"key": "Authorization",
								"value": "{{token}}"
							},
							{
								"key": "Content-Type",
								"value": "application/json"
							}
						],
						"body": {
							"mode": "raw",
							"raw": "{\n    \"name\": \"Beauty QP Salon\",\n    \"type\": \"skin\",\n    \"address\": \"21 Ngo Quyen Streets\",\n    \"phone\": \"8921721\",\n    \"info\": \"That is a luxury salon.\",\n    \"created_at\": \"2018-08-26T04:24:31+00:00\",\n    \"updated_at\": \"2018-08-26T04:24:31+00:00\",\n    \"owners\": [2],\n    \"times\": [\n    {\n      \"weekday\": \"Monday\",\n      \"begin_time\": \"2\",\n      \"end_time\": \"7\"\n    },\n    {\n      \"weekday\": \"Tuesday\",\n      \"begin_time\": \"2\",\n      \"end_time\": \"7\"\n    },\n    {\n      \"weekday\": \"Thursday\",\n      \"begin_time\": \"2\",\n      \"end_time\": \"7\"\n    }\n  ]\n}"
						},
						"url": {
							"raw": "{{url}}/api/v1/salons/2",
							"host": [
								"{{url}}"
							],
							"path": [
								"api",
								"v1",
								"salons",
								"2"
							]
						}
					},
					"response": []
				},
				{
					"name": "Get a salon",
					"request": {
						"method": "GET",
						"header": [],
						"body": {
							"mode": "raw",
							"raw": ""
						},
						"url": {
							"raw": "{{url}}/api/v1/salons/2?include=owners,times",
							"host": [
								"{{url}}"
							],
							"path": [
								"api",
								"v1",
								"salons",
								"2"
							],
							"query": [
								{
									"key": "include",
									"value": "owners,times"
								}
							]
						}
					},
					"response": []
				},
				{
					"name": "Create a salon",
					"request": {
						"method": "POST",
						"header": [
							{
								"key": "Authorization",
								"value": "{{token}}"
							},
							{
								"key": "Content-Type",
								"value": "application/json"
							}
						],
						"body": {
							"mode": "raw",
							"raw": "{\n  \"name\":\"Beauty Q Salon\",\n  \"type\": \"\",\n  \"phone\": \"8921721\",\n  \"address\": \"20 Ngo Quyen Streets\",\n  \"location\": \"Da Nang\",\n  \"owners\": [18],\n  \"times\": [\n    {\n      \"weekday\": \"Monday\",\n      \"begin_time\": \"2\",\n      \"end_time\": \"7\"\n    },\n    {\n      \"weekday\": \"Tuesday\",\n      \"begin_time\": \"2\",\n      \"end_time\": \"7\"\n    },\n    {\n      \"weekday\": \"Thursday\",\n      \"begin_time\": \"2\",\n      \"end_time\": \"7\"\n    }\n  ]\n}"
						},
						"url": {
							"raw": "{{url}}/api/v1/salons",
							"host": [
								"{{url}}"
							],
							"path": [
								"api",
								"v1",
								"salons"
							]
						}
					},
					"response": []
				},
				{
					"name": "Get list salons",
					"request": {
						"method": "GET",
						"header": [],
						"body": {
							"mode": "raw",
							"raw": ""
						},
						"url": {
							"raw": "{{url}}/api/v1/salons?search=services.items.name:9&include=owners,times,services,services.items",
							"host": [
								"{{url}}"
							],
							"path": [
								"api",
								"v1",
								"salons"
							],
							"query": [
								{
									"key": "search",
									"value": "services.items.name:9"
								},
								{
									"key": "include",
									"value": "owners,times,services,services.items"
								}
							]
						}
					},
					"response": []
				},
				{
					"name": "Delete a salon",
					"request": {
						"method": "DELETE",
						"header": [
							{
								"key": "Authorization",
								"value": "{{token}}"
							}
						],
						"body": {
							"mode": "raw",
							"raw": ""
						},
						"url": {
							"raw": "{{url}}/api/v1/salons/1",
							"host": [
								"{{url}}"
							],
							"path": [
								"api",
								"v1",
								"salons",
								"1"
							]
						}
					},
					"response": []
				}
			]
		},
		{
			"name": "Services",
			"item": [
				{
					"name": "Update a service",
					"request": {
						"method": "PATCH",
						"header": [
							{
								"key": "Authorization",
								"value": "{{token}}"
							},
							{
								"key": "Content-Type",
								"value": "application/json"
							}
						],
						"body": {
							"mode": "raw",
							"raw": "{\n    \"name\": \"Service 1\",\n    \"description\": \"This is new description\",\n    \"price\": \"500000.00\"\n}"
						},
						"url": {
							"raw": "{{url}}/api/v1/services/2",
							"host": [
								"{{url}}"
							],
							"path": [
								"api",
								"v1",
								"services",
								"2"
							]
						}
					},
					"response": []
				},
				{
					"name": "Get a service",
					"request": {
						"method": "GET",
						"header": [
							{
								"key": "Authorization",
								"value": "{{token}}"
							}
						],
						"body": {
							"mode": "raw",
							"raw": ""
						},
						"url": {
							"raw": "{{url}}/api/v1/services/2",
							"host": [
								"{{url}}"
							],
							"path": [
								"api",
								"v1",
								"services",
								"2"
							]
						}
					},
					"response": []
				},
				{
					"name": "Get list services",
					"request": {
						"method": "GET",
						"header": [
							{
								"key": "Authorization",
								"value": "{{token}}"
							}
						],
						"body": {
							"mode": "raw",
							"raw": ""
						},
						"url": {
							"raw": "{{url}}/api/v1/services",
							"host": [
								"{{url}}"
							],
							"path": [
								"api",
								"v1",
								"services"
							]
						}
					},
					"response": []
				},
				{
					"name": "Delete a service",
					"request": {
						"method": "DELETE",
						"header": [
							{
								"key": "Authorization",
								"value": "{{token}}"
							}
						],
						"body": {
							"mode": "raw",
							"raw": ""
						},
						"url": {
							"raw": "{{url}}/api/v1/services/1",
							"host": [
								"{{url}}"
							],
							"path": [
								"api",
								"v1",
								"services",
								"1"
							]
						}
					},
					"response": []
				},
				{
					"name": "Create a service",
					"request": {
						"method": "POST",
						"header": [
							{
								"key": "Authorization",
								"value": "{{token}}"
							},
							{
								"key": "Content-Type",
								"value": "application/json"
							}
						],
						"body": {
							"mode": "raw",
							"raw": "{\n  \"name\":\"Service 7\",\n  \"description\": \"This is description of service\",\n  \"price\": \"30.20\"\n}"
						},
						"url": {
							"raw": "{{url}}/api/v1/salons/4/services",
							"host": [
								"{{url}}"
							],
							"path": [
								"api",
								"v1",
								"salons",
								"4",
								"services"
							]
						}
					},
					"response": []
				}
			]
		},
		{
			"name": "Orders",
			"item": [
				{
					"name": "Create a order",
					"request": {
						"method": "POST",
						"header": [
							{
								"key": "Authorization",
								"value": "{{token}}"
							},
							{
								"key": "Content-Type",
								"value": "application/json"
							}
						],
						"body": {
							"mode": "raw",
							"raw": "{\n  \"salon_id\": 2,\n  \"date\": \"2018-09-01 13:02:33\",\n  \"details\": [1,3]\n}"
						},
						"url": {
							"raw": "{{url}}/api/v1/orders",
							"host": [
								"{{url}}"
							],
							"path": [
								"api",
								"v1",
								"orders"
							]
						}
					},
					"response": []
				},
				{
					"name": "Update a order",
					"request": {
						"method": "PATCH",
						"header": [
							{
								"key": "Authorization",
								"value": "{{token}}"
							},
							{
								"key": "Content-Type",
								"value": "application/json"
							}
						],
						"body": {
							"mode": "raw",
							"raw": "{\n  \"salon_id\": 5,\n  \"date\": \"2018-09-01 13:02:33\",\n  \"details\": [3,6]\n}"
						},
						"url": {
							"raw": "{{url}}/api/v1/orders/4",
							"host": [
								"{{url}}"
							],
							"path": [
								"api",
								"v1",
								"orders",
								"4"
							]
						}
					},
					"response": [
						{
							"name": "Update a order",
							"originalRequest": {
								"method": "PATCH",
								"header": [
									{
										"key": "Authorization",
										"value": "{{token}}",
										"disabled": false
									},
									{
										"key": "Content-Type",
										"value": "application/json",
										"disabled": false
									}
								],
								"body": {
									"mode": "raw",
									"raw": "{\n  \"salon_id\": 5,\n  \"date\": \"2018-09-01 13:02:33\",\n  \"details\": [3,6]\n}"
								},
								"url": {
									"raw": "{{url}}/api/v1/orders/4",
									"host": [
										"{{url}}"
									],
									"path": [
										"api",
										"v1",
										"orders",
										"4"
									]
								}
							},
							"status": "OK",
							"code": 200,
							"_postman_previewlanguage": "json",
							"header": [
								{
									"key": "Access-Control-Allow-Headers",
									"value": "Content-Type, X-Auth-Token, Origin, Authorization, Cache-Control, X-Requested-With",
									"name": "Access-Control-Allow-Headers",
									"description": "Used in response to a preflight request to indicate which HTTP headers can be used when making the actual request."
								},
								{
									"key": "Access-Control-Allow-Methods",
									"value": "POST, GET, OPTIONS, PUT, DELETE, PATCH",
									"name": "Access-Control-Allow-Methods",
									"description": "Specifies the method or methods allowed when accessing the resource. This is used in response to a preflight request."
								},
								{
									"key": "Access-Control-Allow-Origin",
									"value": "*",
									"name": "Access-Control-Allow-Origin",
									"description": "Specifies a URI that may access the resource. For requests without credentials, the server may specify '*' as a wildcard, thereby allowing any origin to access the resource."
								},
								{
									"key": "Cache-Control",
									"value": "no-cache, private",
									"name": "Cache-Control",
									"description": "Tells all caching mechanisms from server to client whether they may cache this object. It is measured in seconds"
								},
								{
									"key": "Connection",
									"value": "close",
									"name": "Connection",
									"description": "Options that are desired for the connection"
								},
								{
									"key": "Content-Type",
									"value": "application/json",
									"name": "Content-Type",
									"description": "The mime type of this content"
								},
								{
									"key": "Date",
									"value": "Thu, 13 Sep 2018 15:55:58 +0000",
									"name": "Date",
									"description": "The date and time that the message was sent"
								},
								{
									"key": "Date",
									"value": "Thu, 13 Sep 2018 15:55:58 GMT",
									"name": "Date",
									"description": "The date and time that the message was sent"
								},
								{
									"key": "Host",
									"value": "localhost:9000",
									"name": "Host",
									"description": "Custom header"
								},
								{
									"key": "X-Powered-By",
									"value": "PHP/7.2.5",
									"name": "X-Powered-By",
									"description": "Specifies the technology (ASP.NET, PHP, JBoss, e.g.) supporting the web application (version details are often in X-Runtime, X-Version, or X-AspNet-Version)"
								},
								{
									"key": "X-RateLimit-Limit",
									"value": "60",
									"name": "X-RateLimit-Limit",
									"description": "Custom header"
								},
								{
									"key": "X-RateLimit-Remaining",
									"value": "58",
									"name": "X-RateLimit-Remaining",
									"description": "Custom header"
								}
							],
							"cookie": [],
							"body": "{\"id\":4,\"salon_id\":5,\"salon_name\":\"Beauty Q Salon\",\"user_id\":18,\"amount\":531.2,\"quantity\":2,\"tax\":\"0.00\",\"date\":\"2018-09-01 13:02:33\",\"status\":0,\"created_at\":\"2018-09-13 15:53:11\",\"updated_at\":\"2018-09-13 15:55:58\"}"
						}
					]
				},
				{
					"name": "Get a order",
					"request": {
						"method": "GET",
						"header": [
							{
								"key": "Authorization",
								"value": "{{token}}"
							}
						],
						"body": {
							"mode": "raw",
							"raw": ""
						},
						"url": {
							"raw": "{{url}}/api/v1/orders/2",
							"host": [
								"{{url}}"
							],
							"path": [
								"api",
								"v1",
								"orders",
								"2"
							]
						}
					},
					"response": []
				},
				{
					"name": "Get list orders",
					"request": {
						"method": "GET",
						"header": [
							{
								"key": "Authorization",
								"value": "{{token}}"
							}
						],
						"body": {
							"mode": "raw",
							"raw": ""
						},
						"url": {
							"raw": "{{url}}/api/v1/orders?include=salon,user,details,details.order,details.service,details.item",
							"host": [
								"{{url}}"
							],
							"path": [
								"api",
								"v1",
								"orders"
							],
							"query": [
								{
									"key": "include",
									"value": "salon,user,details,details.order,details.service,details.item"
								}
							]
						}
					},
					"response": []
				},
				{
					"name": "Delete a order",
					"request": {
						"method": "DELETE",
						"header": [
							{
								"key": "Authorization",
								"value": "{{token}}"
							}
						],
						"body": {
							"mode": "raw",
							"raw": ""
						},
						"url": {
							"raw": "{{url}}/api/v1/orders/1",
							"host": [
								"{{url}}"
							],
							"path": [
								"api",
								"v1",
								"orders",
								"1"
							]
						}
					},
					"response": []
				}
			]
		},
		{
			"name": "Ratings",
			"item": [
				{
					"name": "Update a rating",
					"request": {
						"method": "PATCH",
						"header": [
							{
								"key": "Authorization",
								"value": "{{token}}"
							},
							{
								"key": "Content-Type",
								"value": "application/json"
							}
						],
						"body": {
							"mode": "raw",
							"raw": "{\n    \"name\": \"Nguyen Van Lanh\",\n    \"description\": \"Dich vu chat luong tot\",\n    \"star\": \"4\",\n    \"salon_id\": 1,\n    \"email\": \"vanlanh10273@gmail.com\"\n}"
						},
						"url": {
							"raw": "{{url}}/api/v1/ratings/2",
							"host": [
								"{{url}}"
							],
							"path": [
								"api",
								"v1",
								"ratings",
								"2"
							]
						}
					},
					"response": []
				},
				{
					"name": "Get a rating",
					"request": {
						"method": "GET",
						"header": [
							{
								"key": "Authorization",
								"value": "{{token}}"
							}
						],
						"body": {
							"mode": "raw",
							"raw": ""
						},
						"url": {
							"raw": "{{url}}/api/v1/ratings/2",
							"host": [
								"{{url}}"
							],
							"path": [
								"api",
								"v1",
								"ratings",
								"2"
							]
						}
					},
					"response": []
				},
				{
					"name": "Create a rating",
					"request": {
						"method": "POST",
						"header": [
							{
								"key": "Authorization",
								"value": "{{token}}"
							},
							{
								"key": "Content-Type",
								"value": "application/json"
							}
						],
						"body": {
							"mode": "raw",
							"raw": "{\n  \"name\":\"Nguyen van A\",\n  \"description\": \"Dich vu rat tot, cham soc nhiet tinh\",\n  \"star\": \"4\",\n  \"salon_id\": 1,\n  \"email\": \"helov@gmail.com\"\n}"
						},
						"url": {
							"raw": "{{url}}/api/v1/ratings",
							"host": [
								"{{url}}"
							],
							"path": [
								"api",
								"v1",
								"ratings"
							]
						}
					},
					"response": []
				},
				{
					"name": "Get list ratings",
					"request": {
						"method": "GET",
						"header": [
							{
								"key": "Authorization",
								"value": "{{token}}"
							}
						],
						"body": {
							"mode": "raw",
							"raw": ""
						},
						"url": {
							"raw": "{{url}}/api/v1/ratings?include=salon",
							"host": [
								"{{url}}"
							],
							"path": [
								"api",
								"v1",
								"ratings"
							],
							"query": [
								{
									"key": "include",
									"value": "salon"
								}
							]
						}
					},
					"response": []
				},
				{
					"name": "Delete a rating",
					"request": {
						"method": "DELETE",
						"header": [
							{
								"key": "Authorization",
								"value": "{{token}}"
							}
						],
						"body": {
							"mode": "raw",
							"raw": ""
						},
						"url": {
							"raw": "{{url}}/api/v1/ratings/1",
							"host": [
								"{{url}}"
							],
							"path": [
								"api",
								"v1",
								"ratings",
								"1"
							]
						}
					},
					"response": []
				}
			]
		},
		{
			"name": "ServiceItems",
			"item": [
				{
					"name": "Get list service items",
					"request": {
						"method": "GET",
						"header": [
							{
								"key": "Authorization",
								"value": "{{token}}"
							}
						],
						"body": {
							"mode": "raw",
							"raw": ""
						},
						"url": {
							"raw": "{{url}}/api/v1/services/2/items",
							"host": [
								"{{url}}"
							],
							"path": [
								"api",
								"v1",
								"services",
								"2",
								"items"
							]
						}
					},
					"response": []
				},
				{
					"name": "Create a service item",
					"request": {
						"method": "POST",
						"header": [
							{
								"key": "Authorization",
								"value": "{{token}}"
							},
							{
								"key": "Content-Type",
								"value": "application/json"
							}
						],
						"body": {
							"mode": "raw",
							"raw": "{\n  \"name\":\"Service Item 10\",\n  \"description\": \"This is description of service\",\n  \"price\": \"300.20\"\n}"
						},
						"url": {
							"raw": "{{url}}/api/v1/services/7/items",
							"host": [
								"{{url}}"
							],
							"path": [
								"api",
								"v1",
								"services",
								"7",
								"items"
							]
						}
					},
					"response": []
				},
				{
					"name": "Delete a service item",
					"request": {
						"method": "DELETE",
						"header": [
							{
								"key": "Authorization",
								"value": "{{token}}"
							}
						],
						"body": {
							"mode": "raw",
							"raw": ""
						},
						"url": {
							"raw": "{{url}}/api/v1/serviceItems/1",
							"host": [
								"{{url}}"
							],
							"path": [
								"api",
								"v1",
								"serviceItems",
								"1"
							]
						}
					},
					"response": []
				},
				{
					"name": "Update a service item",
					"request": {
						"method": "PATCH",
						"header": [
							{
								"key": "Authorization",
								"value": "{{token}}"
							},
							{
								"key": "Content-Type",
								"value": "application/json"
							}
						],
						"body": {
							"mode": "raw",
							"raw": "{\n    \"name\": \"Service Item 2\",\n    \"description\": \"This is new description 11\",\n    \"price\": \"500200.00\"\n}"
						},
						"url": {
							"raw": "{{url}}/api/v1/items/2",
							"host": [
								"{{url}}"
							],
							"path": [
								"api",
								"v1",
								"items",
								"2"
							]
						}
					},
					"response": []
				},
				{
					"name": "Get a service item",
					"request": {
						"method": "GET",
						"header": [],
						"body": {
							"mode": "raw",
							"raw": ""
						},
						"url": {
							"raw": "{{url}}/api/v1/serviceItems/2",
							"host": [
								"{{url}}"
							],
							"path": [
								"api",
								"v1",
								"serviceItems",
								"2"
							]
						}
					},
					"response": []
				}
			]
		},
		{
			"name": "StaticPages",
			"item": [
				{
					"name": "Update a static page",
					"request": {
						"method": "PATCH",
						"header": [
							{
								"key": "Authorization",
								"value": "{{token}}"
							},
							{
								"key": "Content-Type",
								"value": "application/json"
							}
						],
						"body": {
							"mode": "raw",
							"raw": "{\n    \"name\":\"page title 1\",\n  \"description\": \"This is description of page\",\n  \"content\": \"This is content of page after updated\",\n  \"photo\": \"\",\n}"
						},
						"url": {
							"raw": "{{url}}/api/v1/staticPages/2",
							"host": [
								"{{url}}"
							],
							"path": [
								"api",
								"v1",
								"staticPages",
								"2"
							]
						}
					},
					"response": []
				},
				{
					"name": "Get list static pages",
					"request": {
						"method": "GET",
						"header": [],
						"body": {
							"mode": "raw",
							"raw": ""
						},
						"url": {
							"raw": "{{url}}/api/v1/staticPages",
							"host": [
								"{{url}}"
							],
							"path": [
								"api",
								"v1",
								"staticPages"
							]
						}
					},
					"response": []
				},
				{
					"name": "Get a static page",
					"request": {
						"method": "GET",
						"header": [],
						"body": {
							"mode": "raw",
							"raw": ""
						},
						"url": {
							"raw": "{{url}}/api/v1/staticPages/2",
							"host": [
								"{{url}}"
							],
							"path": [
								"api",
								"v1",
								"staticPages",
								"2"
							]
						}
					},
					"response": []
				},
				{
					"name": "Create a static page",
					"request": {
						"method": "POST",
						"header": [
							{
								"key": "Authorization",
								"value": "{{token}}"
							},
							{
								"key": "Content-Type",
								"value": "application/json"
							}
						],
						"body": {
							"mode": "raw",
							"raw": "{\n  \"name\":\"page title 1\",\n  \"description\": \"This is description of page\",\n  \"content\": \"This is content of page\",\n  \"photo\": \"\",\n}"
						},
						"url": {
							"raw": "{{url}}/api/v1/staticPages",
							"host": [
								"{{url}}"
							],
							"path": [
								"api",
								"v1",
								"staticPages"
							]
						}
					},
					"response": []
				},
				{
					"name": "Delete a static page",
					"request": {
						"method": "DELETE",
						"header": [
							{
								"key": "Authorization",
								"value": "{{token}}"
							}
						],
						"body": {
							"mode": "raw",
							"raw": ""
						},
						"url": {
							"raw": "{{url}}/api/v1/staticPages/1",
							"host": [
								"{{url}}"
							],
							"path": [
								"api",
								"v1",
								"staticPages",
								"1"
							]
						}
					},
					"response": []
				}
			]
		}
	]
}